
************* 11-11-2019 18:36:02 *************
11-11-2019 18:36:02-- API Call Success.------API called http://localhost:44762//search/createindex/awctdance2019/PRODUCTION/12/698/698 
***********************************************

************* 11-11-2019 18:36:02 *************
Indexer|12|awctdance2019|11|698|Manually|http://localhost:44762/|2|698|PRODUCTION|bG9jYWxob3N0OjY3NjZ8|0|600000
***********************************************
